99 28 119
13 26 24
93 80 111
59 84 116
98 9 119
47 47 105
19 93 116
94 83 111
71 65 103
65 13 113
40 48 110
88 80 111
66 17 113
84 30 116
26 58 113
19 76 116
85 31 116
1 30 112
62 11 113
13 60 113
920 259 179
206 438 144
703 151 171
173 273 128
615 89 144
538 606 137
488 625 142
185 754 171
941 920 174
735 866 153
278 953 179
693 762 171
136 494 144
591 649 145
104 255 128
108 375 144
865 665 171
165 568 144
167 337 144
840 133 171
425 377 134
739 912 179
354 275 144
17 294 128
547 752 171
512 824 171
56 204 125
937 191 179
697 880 179
840 153 171
5134 9299 262
3527 3999 238
316 8691 262
3918 7482 262
1379 4757 238
2967 803 217
4486 8705 262
8067 2839 262
7331 6083 262
7484 1877 262
1186 5995 238
52 242 128
4551 5341 210
3784 6247 262
5220 975 238
6751 6705 182
274 6630 262
703 6941 262
1672 972 182
4422 3051 238
5729 7388 262
3853 6566 262
2444 8271 262
9404 6127 262
4354 6887 262
4355 5539 215
9234 4407 262
2132 3784 238
9747 5916 262
6382 1318 262
6890 3133 262
8022 3515 262
9762 5077 262
455 1433 182
6048 1229 238
835 8128 262
4968 1040 238
4693 3764 215
9310 448 262
9890 3663 262
3687 596 217
5554 2920 238
5002 4037 215
3055 1100 217
9952 9436 242
8769 3194 262
8920 6791 257
6708 5033 262
1867 3515 217
2818 4266 238
74743 23652 340
82394 79710 320
11043 87086 351
29825 30353 272
63886 79714 351
70367 27572 340
310 42272 324
26843 91663 351
86309 89897 333
19115 52612 340
55684 17883 340
45805 50956 314
71025 72513 325
62340 29243 340
2379 71509 340
53509 77121 351
95161 52254 351
73182 22555 340
55691 3007 340
52907 19576 340
99072 23274 351
47147 15733 324
81897 90341 333
7396 68205 340
80237 42862 351
20817 52273 324
77096 66621 351
19580 48121 324
55485 81919 351
93715 74215 351
53428 63575 335
51335 64940 340
15828 40869 324
87494 71519 351
60227 56753 317
7446 59298 340
80026 70945 351
75031 78274 351
61285 98778 351
46479 57874 340
41639 83647 351
10146 35086 311
66619 46077 340
99558 38456 351
27995 93273 351
12670 81422 351
56847 64005 335
62713 89027 351
21225 50207 324
76897 81451 351
6959 84342 351
40748 3336 324
55286 32130 340
81609 32923 351
30907 44439 324
90796 88897 315
28085 17293 308
40335 94704 351
63369 39892 340
33159 7715 308
33164 45828 324
89137 6363 351
26184 51849 324
11741 47408 324
18407 88637 351
45210 41717 314
72978 2310 340
45052 44616 270
34439 43013 324
93890 81698 333
87451 84685 333
86946 15536 351
18329 27280 308
26591 98049 351
83524 59749 351
5763 16687 276
21928 11251 279
39401 48112 314
79452 51141 351
11871 97858 351
39777 57081 340
39575 29107 324
59390 978 340
90074 10180 351
43990 83963 351
8229 31441 308
84999 95175 333
63328 19679 340
38806 89918 351
17727 22329 274
49666 39841 314
55368 71593 335
51092 94768 351
36056 46895 314
62261 47927 340
61104 18389 340
5007 17030 276
47495 80748 351
18008 53920 340
90927 78349 338
