1 10 20
100 200 125
201 210 89
900 1000 174
500 1000 179
289384 930887 525
636916 692778 442
238336 747794 509
760493 885387 525
516650 641422 509
202363 490028 449
368691 520060 470
513927 897764 525
180541 383427 443
89173 455737 449
5212 595369 470
702568 956430 525
21531 465783 449
665124 722863 504
174068 703136 509
513930 979803 525
634023 723059 504
133070 898168 525
18457 961394 525
175012 478043 449
176230 377374 443
484422 544920 470
413785 898538 525
575199 594325 434
664371 798316 504
566414 803527 509
268981 776092 509
241874 759957 509
806863 999171 525
497282 906997 525
420926 702306 509
336328 477085 449
126506 660337 509
621730 750847 509
661314 925858 525
353896 616125 470
100546 819583 509
233368 898815 525
515435 990365 525
313751 344044 384
171088 426809 449
117277 947179 525
393585 695789 509
502652 705404 509
392755 612400 470
95061 999933 525
549677 993369 525
210013 947740 525
636227 698587 442
297540 348095 441
140796 480571 449
651435 960379 525
66602 97468 351
612903 710098 509
570493 573318 372
260757 926653 525
560281 997302 525
209442 724287 509
429690 953866 525
228445 346620 443
558441 744730 509
108118 958032 525
738098 905772 525
834482 890676 525
120710 698928 509
704568 777857 504
179498 872354 525
254587 276966 407
455307 964684 525
28625 406220 443
51529 332872 443
48830 805733 509
409504 530020 470
258271 363369 441
486716 959709 525
226341 518150 470
700724 747797 504
2246 142619 375
122847 493452 449
243556 892922 525
192380 597489 470
537765 888229 525
469842 792351 509
165194 441501 449
87765 757035 509
324915 470125 449
275857 936988 525
346492 373744 410
148366 322228 443
281937 709860 509
151433 452552 449
316438 899229 525
153276 975408 525
276122 901475 525
468859 794396 509
36030 661238 509
573794 908236 525
65819 894429 525
231012 366144 441
335929 639530 509
318777 322405 371
255764 964444 525
114614 854539 525
118607 436841 449
2905 344819 443
235129 670689 509
67918 797370 509
466997 569918 470
43325 987744 525
259471 512184 470
295500 298491 327
206726 689773 509
385645 755591 509
268140 617506 470
469787 502955 426
338083 907670 525
308543 388465 441
110198 939508 525
228805 759356 509
278612 376349 441
127829 573623 470
887344 949300 507
35569 195747 383
354341 755423 509
23312 613811 470
267606 321802 407
425662 473731 444
44879 811306 509
178737 229321 386
79445 248627 443
503466 648523 509
473417 586709 470
213259 408283 443
167638 412925 449
305625 442063 449
532037 962601 525
433453 911900 525
145551 419380 449
290072 947469 525
487132 900974 525
684931 903882 525
808934 845895 525
158661 370164 443
387982 657200 509
252997 548900 470
152960 713774 509
272814 739669 509
187191 681096 509
116467 952927 525
365085 911341 525
327685 422091 449
443377 855543 525
379108 755937 509
219757 517446 470
418419 669180 509
89413 706888 509
32173 103349 351
262010 451660 449
402337 625211 470
166343 467588 449
319302 878207 525
667373 697714 442
401256 575322 470
44600 864820 525
229905 517722 470
939812 955940 414
73941 915668 525
311706 346229 441
811128 829151 450
565985 996659 525
763921 789225 468
602423 867270 525
54082 821397 509
645631 740085 504
679293 811973 504
73851 207673 383
647626 905386 525
739300 741223 393
306641 606043 470
340714 783899 509
256191 352299 441
280525 942591 525
108582 688210 509
288820 499337 449
371156 937733 525
218005 495995 449
160380 614770 470
85274 981777 525
247256 668851 509
348143 721861 509
445885 575580 470
223206 421994 449
679568 867622 525
690614 962505 525
262755 801962 509
31327 154260 375
518945 828203 509
613203 723507 509
902022 936785 476
222843 390869 443
